HomeOffice_Main_Analysis
…
Would it be possible to work more from home in the future?

See the distinct values of the difference between the ideal percentage of working more from the future and the prior percentage. If the difference is negative the respondent wants to work less from home in the future, if it is positive the respondents wants to work more from home in the future.

processed %>% 
  distinct(future_prior_diff) %>% 
  arrange(future_prior_diff)

## # A tibble: 99 x 1
##    future_prior_diff
##                <dbl>
##  1               -85
##  2               -80
##  3               -75
##  4               -70
##  5               -65
##  6               -60
##  7               -58
##  8               -51
##  9               -50
## 10               -42
## # ... with 89 more rows
…
living_sit_include <- c("Living with partner and non-adult child(ren)", "Single-parent with non-adult child(ren)")

Number of kids in this subsample.

processed %>% 
  filter(living_sit %in% living_sit_include) %>% 
  select(number_of_children) %>% 
  arrange(number_of_children)

## # A tibble: 304 x 1
##    number_of_children
##                 <dbl>
##  1                  0
##  2                  1
##  3                  1
##  4                  1
##  5                  1
##  6                  1
##  7                  1
##  8                  1
##  9                  1
## 10                  1
## # ... with 294 more rows
…
